<svg width="50" height="56" viewBox="0 0 50 56" fill="none" xmlns="http://www.w3.org/2000/svg">
<path fill-rule="evenodd" clip-rule="evenodd" d="M2.34088 0.221216C1.64891 0.487785 0.981948 1.05144 0.613515 1.68105C-0.0368406 2.79229 0.000734489 1.17975 0.000734489 27.9985C0.000734489 55.2007 -0.0508221 53.2797 0.709965 54.4325C1.40871 55.4913 2.39855 56.0024 3.74306 55.9985C5.18938 55.9942 4.38545 56.4238 22.939 45.7419C32.793 40.0687 47.4854 31.5253 48.0376 31.1475C50.541 29.4347 50.6649 26.7417 48.3192 25.0194C47.3677 24.3207 22.4348 9.81156 14.0914 5.10127C9.61571 2.5745 5.63427 0.393168 5.24378 0.253922C4.32941 -0.0720418 3.13695 -0.085496 2.34088 0.221216Z" fill="white"/>
</svg>
