<svg width="56" height="56" viewBox="0 0 56 56" fill="none" xmlns="http://www.w3.org/2000/svg">
<path d="M55.998 12.8383C55.9742 10.5228 55.6616 4.89153 53.2774 2.61368C50.7684 0.216604 43.6559 -0.649104 35.9809 0.508745C30.5263 1.33147 20.1591 3.92279 12.0107 12.0335C3.88174 20.1248 1.30912 30.397 0.499162 35.8C-0.62309 43.2854 0.193133 50.3744 2.48401 53.0394C4.4761 55.3567 9.17851 55.8731 11.8041 55.9746C12.2396 55.9915 12.686 56 13.1445 56C21.9248 56 34.7187 52.8372 43.8616 43.7367C52.9509 34.6895 56.0905 21.8435 55.998 12.8383ZM11.932 52.6953C8.07021 52.546 5.66231 51.6891 4.98916 50.9059C4.47786 50.311 3.81559 48.6771 3.49033 45.875C3.25781 43.8715 3.11595 40.5815 3.7601 36.2844C3.81108 35.9444 3.86987 35.583 3.9369 35.2035L20.7645 51.9532C17.7272 52.5429 14.7103 52.8028 11.932 52.6953ZM41.5303 41.4162C37.5819 45.3463 32.4013 48.4629 26.5485 50.4293C25.8791 50.6541 25.2034 50.8618 24.5244 51.0549L4.78323 31.4051C6.15217 26.3253 8.88632 19.7845 14.3421 14.354C19.4446 9.2753 25.5301 6.54857 30.4882 5.08578L50.8621 25.3653C49.1709 30.9993 46.2061 36.7619 41.5303 41.4162ZM51.802 21.6597L34.2165 4.15576C35.0398 3.98711 35.7985 3.85553 36.475 3.75337C38.7203 3.41474 40.7727 3.2742 42.5875 3.2742C47.0748 3.2742 50.1071 4.13356 50.9942 4.98122C51.785 5.73679 52.6564 8.52838 52.7012 12.8718C52.7285 15.5199 52.455 18.525 51.802 21.6597Z" fill="#A3B0C1"/>
<path d="M39.2185 21.613L37.9057 20.3059L38.8277 19.3882C39.4715 18.7474 39.4715 17.7085 38.8277 17.0677C38.1839 16.4269 37.1402 16.4269 36.4963 17.0677L35.5744 17.9853L34.261 16.678C33.6173 16.0371 32.5735 16.0371 31.9296 16.678C31.2858 17.3188 31.2858 18.3577 31.9296 18.9985L33.2431 20.3059L31.439 22.1016L30.1257 20.7943C29.482 20.1535 28.4382 20.1535 27.7944 20.7943C27.1506 21.4352 27.1506 22.474 27.7944 23.1148L29.1077 24.4221L27.2308 26.2903L25.8785 24.9444C25.2348 24.3035 24.191 24.3035 23.5472 24.9444C22.9034 25.5852 22.9034 26.624 23.5472 27.2649L24.8995 28.6108L23.0954 30.4066L21.743 29.0605C21.0993 28.4197 20.0555 28.4197 19.4117 29.0605C18.7679 29.7013 18.7679 30.7402 19.4117 31.381L20.7641 32.7271L19.0377 34.4455L17.7243 33.1382C17.0806 32.4974 16.0368 32.4974 15.393 33.1382C14.7492 33.7791 14.7492 34.8179 15.393 35.4587L16.7064 36.766L16.3166 37.1541C15.6728 37.7949 15.6728 38.8337 16.3166 39.4746C16.6384 39.7949 17.0604 39.9553 17.4823 39.9553C17.9041 39.9553 18.3261 39.7951 18.6479 39.4746L19.0377 39.0866L20.351 40.3939C20.6729 40.7142 21.0948 40.8746 21.5167 40.8746C21.9385 40.8746 22.3605 40.7144 22.6823 40.3939C23.3261 39.753 23.3261 38.7142 22.6823 38.0734L21.369 36.7661L23.0954 35.0477L24.3699 36.3163C24.6918 36.6367 25.1137 36.7971 25.5356 36.7971C25.9574 36.7971 26.3794 36.6369 26.7012 36.3163C27.345 35.6755 27.345 34.6367 26.7012 33.9958L25.4267 32.7272L27.2308 30.9315L28.5052 32.2C28.8271 32.5204 29.249 32.6807 29.6709 32.6807C30.0927 32.6807 30.5147 32.5206 30.8365 32.2C31.4803 31.5592 31.4803 30.5203 30.8365 29.8795L29.5621 28.611L31.439 26.7427L32.7524 28.05C33.0742 28.3703 33.4962 28.5307 33.918 28.5307C34.3399 28.5307 34.7618 28.3705 35.0837 28.05C35.7275 27.4091 35.7275 26.3703 35.0837 25.7295L33.7703 24.4222L35.5744 22.6264L36.8879 23.9336C37.2097 24.254 37.6317 24.4143 38.0535 24.4143C38.4754 24.4143 38.8973 24.2542 39.2191 23.9336C39.8622 23.2927 39.8622 22.2538 39.2185 21.613Z" fill="#A3B0C1"/>
</svg>
