<svg width="72" height="72" viewBox="0 0 72 72" fill="none" xmlns="http://www.w3.org/2000/svg">
<path fill-rule="evenodd" clip-rule="evenodd" d="M47.2049 21.766L41.4455 4.04032C39.8888 -0.750534 33.1111 -0.75045 31.5545 4.04032L25.7951 21.766H7.15725C2.11999 21.766 0.0253632 28.2119 4.10076 31.1728L19.1791 42.1279L13.4197 59.8535C11.8631 64.6443 17.3463 68.6282 21.4217 65.6673L36.5 54.7123L51.5783 65.6673C55.6536 68.6282 61.137 64.6444 59.5803 59.8535L53.8209 42.1279L68.8992 31.1728C72.9746 28.2119 70.8801 21.766 65.8427 21.766H47.2049Z" fill="#F26925"/>
</svg>
