<svg width="54" height="54" viewBox="0 0 54 54" fill="none" xmlns="http://www.w3.org/2000/svg">
<path fill-rule="evenodd" clip-rule="evenodd" d="M31.8742 0.149899C31.0544 0.405876 30.2857 1.11369 29.8661 1.99879C29.4789 2.81535 29.4774 3.91804 29.8624 4.74102C30.1836 5.42785 30.8535 6.11688 31.5254 6.45144C32.0066 6.69106 32.0343 6.69233 37.223 6.72239L42.4372 6.75255L35.8918 13.3143C28.61 20.6143 28.9509 20.204 28.9509 21.669C28.9509 22.6361 29.218 23.314 29.8709 24.0047C30.5677 24.7415 31.247 25.0343 32.2726 25.0398C33.7955 25.048 33.3445 25.4203 40.6786 18.1019L47.2392 11.5554L47.2693 16.7704C47.2994 21.9601 47.3006 21.9877 47.5402 22.4691C48.5981 24.5944 51.3654 25.0777 53.0094 23.4241C53.2498 23.1823 53.5583 22.7597 53.6948 22.4849L53.9429 21.9854L53.9714 12.371L54 2.75649L53.7707 2.1436C53.462 1.3183 52.6748 0.529487 51.853 0.222041C51.2476 -0.0045095 51.2215 -0.00514234 41.7856 0.00192418C34.2038 0.00761957 32.2357 0.0369403 31.8742 0.149899ZM20.7256 29.0342C20.4936 29.1108 20.1852 29.2343 20.0402 29.3089C19.8952 29.3833 16.848 32.3676 13.2687 35.9405L6.76083 42.4368L6.73068 37.2209L6.70052 32.0051L6.45239 31.5056C5.40103 29.3898 2.63155 28.916 0.986397 30.5706C0.743436 30.8149 0.434989 31.2376 0.30096 31.5099L0.0570495 32.0051L0.0285775 41.6196L0 51.234L0.229252 51.8469C0.538964 52.6749 1.3249 53.4609 2.15269 53.7707L2.76547 54L12.3783 53.9714L21.991 53.9429L22.4905 53.6948C24.6059 52.6432 25.0796 49.8733 23.4253 48.2278C23.1811 47.9848 22.7584 47.6763 22.4861 47.5423C21.9918 47.2986 21.9837 47.2983 16.777 47.2681L11.5628 47.238L18.1082 40.6762C25.4524 33.3137 25.0519 33.8021 25.0461 32.216C25.0434 31.5065 24.9974 31.2847 24.7561 30.822C24.1515 29.6628 23.1315 28.9907 21.8856 28.9308C21.4588 28.9102 20.9694 28.9538 20.7256 29.0342Z" fill="#A3B0C1"/>
</svg>
