<svg width="44" height="56" viewBox="0 0 44 56" fill="none" xmlns="http://www.w3.org/2000/svg">
<path fill-rule="evenodd" clip-rule="evenodd" d="M6.26276 0.784573C4.79514 1.07641 3.4409 1.82308 2.30437 2.96708C1.60506 3.67097 1.34277 4.03236 0.942021 4.8442C0.0730083 6.60463 0.134235 4.85337 0.134235 27.9829C0.134235 51.1124 0.0730083 49.3611 0.942021 51.1215C1.34277 51.9334 1.60506 52.2948 2.30437 52.9987C3.76762 54.4715 5.31311 55.166 7.3305 55.2573C8.83428 55.3253 9.78564 55.1321 11.0638 54.4989C13.0568 53.5117 14.4776 51.814 15.0845 49.6952L15.3305 48.8362V27.9829V7.12953L15.0845 6.27055C14.6637 4.80132 13.7705 3.43055 12.564 2.4026C11.8487 1.79311 10.2857 1.02948 9.35716 0.835666C8.56292 0.670013 6.97146 0.643666 6.26276 0.784573ZM34.5838 0.834813C33.6888 1.03535 32.1193 1.81561 31.4303 2.4026C30.2238 3.43055 29.3306 4.80132 28.9098 6.27055L28.6638 7.12953V27.9829V48.8362L28.9099 49.6895C29.7326 52.5432 32.0941 54.6936 34.9499 55.1897C36.0248 55.3765 37.6545 55.2644 38.6041 54.9384C40.5839 54.2586 42.1474 52.9171 43.0428 51.1295C43.9224 49.3735 43.8601 51.1374 43.8601 27.9829C43.8601 4.82831 43.9224 6.59225 43.0428 4.8362C42.1482 3.05028 40.5913 1.71343 38.6041 1.025C37.6286 0.686973 35.6595 0.593853 34.5838 0.834813Z" fill="white"/>
</svg>
