<svg width="44" height="44" viewBox="0 0 44 44" fill="none" xmlns="http://www.w3.org/2000/svg">
<path fill-rule="evenodd" clip-rule="evenodd" d="M22.0002 0.666664C23.4729 0.666664 24.6668 1.86057 24.6668 3.33333V40.6667C24.6668 42.1394 23.4729 43.3333 22.0002 43.3333C20.5274 43.3333 19.3335 42.1394 19.3335 40.6667V3.33333C19.3335 1.86057 20.5274 0.666664 22.0002 0.666664Z" fill="#A3B0C1"/>
<path fill-rule="evenodd" clip-rule="evenodd" d="M0.666504 22C0.666504 20.5272 1.86041 19.3333 3.33317 19.3333H40.6665C42.1393 19.3333 43.3332 20.5272 43.3332 22C43.3332 23.4728 42.1393 24.6667 40.6665 24.6667H3.33317C1.86041 24.6667 0.666504 23.4728 0.666504 22Z" fill="#A3B0C1"/>
</svg>
