<svg width="56" height="46" viewBox="0 0 56 46" fill="none" xmlns="http://www.w3.org/2000/svg">
<path d="M47.3726 4.08165C42.1706 1.44961 35.2906 0 28 0C20.7094 0 13.8294 1.44961 8.62739 4.08165C3.06392 6.89664 0 10.7733 0 14.9975V31.0024C0 35.2267 3.06392 39.1033 8.62739 41.9183C13.8294 44.5503 20.7094 46 28 46C35.2906 46 42.1706 44.5503 47.3726 41.9183C52.9361 39.1033 56 35.2267 56 31.0024V14.9975C56 10.7733 52.9361 6.89664 47.3726 4.08165ZM52.7188 31.0024C52.7188 33.8613 50.2353 36.7574 45.9051 38.9484C41.1499 41.3544 34.7911 42.6795 28 42.6795C21.2089 42.6795 14.8501 41.3544 10.0948 38.9484C5.76472 36.7574 3.28125 33.8613 3.28125 31.0024V22.1644C4.65883 23.5479 6.45083 24.8122 8.62739 25.9135C13.8294 28.5455 20.7094 29.995 28 29.995C35.2906 29.995 42.1706 28.5454 47.3726 25.9135C49.5491 24.8122 51.3411 23.5479 52.7188 22.1643V31.0024ZM45.9052 22.9435C41.1499 25.3496 34.7912 26.6745 28 26.6745C21.2089 26.6745 14.85 25.3494 10.0948 22.9435C5.76472 20.7526 3.28125 17.8563 3.28125 14.9975C3.28125 12.1387 5.76472 9.24256 10.0948 7.0516C14.8501 4.64557 21.2089 3.32048 28 3.32048C34.7911 3.32048 41.1499 4.64557 45.9051 7.0516C50.2353 9.24256 52.7188 12.1387 52.7188 14.9975C52.7188 17.8563 50.2353 20.7526 45.9052 22.9435Z" fill="#A3B0C1"/>
</svg>
