<svg width="56" height="56" viewBox="0 0 56 56" fill="none" xmlns="http://www.w3.org/2000/svg">
<path d="M47.799 8.20094C42.5105 2.91255 35.4791 0 28 0C20.5209 0 13.4895 2.91255 8.20105 8.20094C2.91255 13.4895 0 20.5209 0 28C0 35.4791 2.91244 42.5105 8.20094 47.7991C13.4895 53.0875 20.5209 56 28 56C35.4791 56 42.5105 53.0875 47.7991 47.7991C53.0875 42.5105 56 35.4791 56 28C56 20.5209 53.0875 13.4895 47.799 8.20094ZM32.8216 3.74883C34.588 4.0962 36.3015 4.63477 37.9376 5.35325C34.8294 7.61359 32.1986 10.4991 30.2412 13.8219C27.8912 17.8116 26.5733 22.3409 26.4027 26.9815C22.8744 28.8533 18.9483 29.8432 14.9687 29.8667C14.428 24.1946 15.8543 18.5223 19.0407 13.7701C22.3195 8.88016 27.1964 5.33903 32.8216 3.74883ZM10.5212 10.5212C14.5519 6.49053 19.7297 4.025 25.3182 3.42584C21.7528 5.5358 18.6695 8.43172 16.3154 11.943C12.8023 17.1823 11.1774 23.4085 11.6574 29.6606C8.74398 29.282 5.90877 28.3878 3.30203 27.0189C3.54386 20.7844 6.08453 14.9579 10.5212 10.5212ZM3.43055 30.7242C6.93864 32.2823 10.9904 33.1156 14.8422 33.1492C19.3897 33.1492 23.8836 32.0273 27.9162 29.8927C31.3167 32.0216 34.1482 34.9441 36.1564 38.398C31.5276 41.6697 25.9291 43.253 20.2485 42.8723C14.3048 42.4733 8.74005 39.966 4.53228 35.8028C3.98945 34.165 3.62009 32.4645 3.43055 30.7242ZM28 52.7188C21.3974 52.7188 15.19 50.1476 10.5212 45.4788C9.59219 44.5498 8.7477 43.5589 7.98853 42.517C11.639 44.6049 15.7474 45.8587 20.0285 46.1462C20.658 46.1885 21.2862 46.2095 21.913 46.2095C27.5238 46.2095 32.9873 44.5255 37.6288 41.3696C38.7473 44.0725 39.3841 46.9632 39.4999 49.8927C35.9958 51.7389 32.0735 52.7188 28 52.7188ZM46.63 44.246C46.2614 44.6674 45.8783 45.0791 45.4787 45.4788C44.5875 46.37 43.6397 47.1843 42.6443 47.9193C42.24 44.1009 41.0552 40.3837 39.1579 37.0299C36.8778 32.9999 33.6142 29.5939 29.6805 27.1258C29.8245 23.1031 30.9453 19.1757 32.9447 15.7011C38.1267 18.0689 42.3255 22.14 44.8476 27.2752C47.4471 32.5677 48.0736 38.5719 46.63 44.246ZM47.7929 25.8287C45.0142 20.1712 40.4397 15.6533 34.7912 12.9423C36.5677 10.6374 38.7427 8.65342 41.2091 7.09625C42.7366 8.06575 44.1684 9.2108 45.4788 10.5212C50.1476 15.19 52.7188 21.3974 52.7188 28C52.7188 31.46 52.0115 34.8109 50.6675 37.8892C50.6237 33.7448 49.6573 29.6248 47.7929 25.8287Z" fill="#A3B0C1"/>
</svg>
